Lab C1
…
Interestingly, many real world phenomena can be characterised by such a simple line. However, the line wont be as perfect as the formula \(y=a+b x\).

Well start by taking a look at the marketing dataset from datarium package. You might first need to install this package using the Packages menu in the bottom right. Just click the install button and type in datarium, then install. Or you can install the package with R command install.packages('datarium').

Exercise 1: Exploratory Analysis on marketing

First of all, lets load the data and turn it into a tidy tibble with tibble().

library(tidyverse)
library(datarium)
data('marketing')
marketing <- marketing %>% tibble()
marketing

## # A tibble: 200 x 4
##    youtube facebook newspaper sales
##      <dbl>    <dbl>     <dbl> <dbl>
##  1   276.     45.4       83.0 26.5 
##  2    53.4    47.2       54.1 12.5 
##  3    20.6    55.1       83.2 11.2 
##  4   182.     49.6       70.2 22.2 
##  5   217.     13.0       70.1 15.5 
##  6    10.4    58.7       90    8.64
##  7    69      39.4       28.2 14.2 
##  8   144.     23.5       13.9 15.8 
##  9    10.3     2.52       1.2  5.76
## 10   240.      3.12      25.4 12.7 
## # ... with 190 more rows
…
The calculated \([mean(y)]_i\) are called fitted values of the linear model and denoted by \(\hat y_i\). It quantifies the mean level of sales given a fixed youtube budget.

We can directly calculate the fitted value and add it to our data set marketing as

ab <- coef(lm.youtube)
ab

## (Intercept)     youtube 
##  8.43911226  0.04753664

marketing.fitted <- marketing %>% mutate(fitted = ab[1] + ab[2]*youtube) 
marketing.fitted

## # A tibble: 200 x 5
##    youtube facebook newspaper sales fitted
##      <dbl>    <dbl>     <dbl> <dbl>  <dbl>
##  1   276.     45.4       83.0 26.5   21.6 
##  2    53.4    47.2       54.1 12.5   11.0 
##  3    20.6    55.1       83.2 11.2    9.42
##  4   182.     49.6       70.2 22.2   17.1 
##  5   217.     13.0       70.1 15.5   18.8 
##  6    10.4    58.7       90    8.64   8.94
##  7    69      39.4       28.2 14.2   11.7 
##  8   144.     23.5       13.9 15.8   15.3 
##  9    10.3     2.52       1.2  5.76   8.93
## 10   240.      3.12      25.4 12.7   19.8 
## # ... with 190 more rows

Alternatively, an easy way to get all fitted values is to use fitted.values().

marketing %>% mutate(fitted = fitted.values(lm.youtube))

## # A tibble: 200 x 5
##    youtube facebook newspaper sales fitted
##      <dbl>    <dbl>     <dbl> <dbl>  <dbl>
##  1   276.     45.4       83.0 26.5   21.6 
##  2    53.4    47.2       54.1 12.5   11.0 
##  3    20.6    55.1       83.2 11.2    9.42
##  4   182.     49.6       70.2 22.2   17.1 
##  5   217.     13.0       70.1 15.5   18.8 
##  6    10.4    58.7       90    8.64   8.94
##  7    69      39.4       28.2 14.2   11.7 
##  8   144.     23.5       13.9 15.8   15.3 
##  9    10.3     2.52       1.2  5.76   8.93
## 10   240.      3.12      25.4 12.7   19.8 
## # ... with 190 more rows
…
Now we are getting some new members \(e_1,e_2,...,e_n\) added in our linear model. They are called random error or residuals which reflects the uncertainties in \(y\). Once \(x_i\) is fixed, all uncertainties in \(y_i\) comes from \(e_i\).

In the other way roundwe can also calculate \(e_i\) provided \(x_i\), \(y_i\), \(a\) and \(b\), \[
e_i=y_i-(a+bx_i)=y_i-\hat y_i.
\]

You can directly calculate all \(e_i\) using the fitted values and observed sales and then integrate them with marketing.fitted as

marketing.fitted.res <-  marketing.fitted %>% mutate(res = sales - fitted) 
marketing.fitted.res

## # A tibble: 200 x 6
##    youtube facebook newspaper sales fitted    res
##      <dbl>    <dbl>     <dbl> <dbl>  <dbl>  <dbl>
##  1   276.     45.4       83.0 26.5   21.6   4.96 
##  2    53.4    47.2       54.1 12.5   11.0   1.50 
##  3    20.6    55.1       83.2 11.2    9.42  1.74 
##  4   182.     49.6       70.2 22.2   17.1   5.12 
##  5   217.     13.0       70.1 15.5   18.8  -3.27 
##  6    10.4    58.7       90    8.64   8.94 -0.295
##  7    69      39.4       28.2 14.2   11.7   2.44 
##  8   144.     23.5       13.9 15.8   15.3   0.544
##  9    10.3     2.52       1.2  5.76   8.93 -3.17 
## 10   240.      3.12      25.4 12.7   19.8  -7.12 
## # ... with 190 more rows

Unsurprisingly, we also have an easy way to get all residuals. That is to use residuals().

marketing.fitted %>% mutate(res = residuals(lm.youtube)) 

## # A tibble: 200 x 6
##    youtube facebook newspaper sales fitted    res
##      <dbl>    <dbl>     <dbl> <dbl>  <dbl>  <dbl>
##  1   276.     45.4       83.0 26.5   21.6   4.96 
##  2    53.4    47.2       54.1 12.5   11.0   1.50 
##  3    20.6    55.1       83.2 11.2    9.42  1.74 
##  4   182.     49.6       70.2 22.2   17.1   5.12 
##  5   217.     13.0       70.1 15.5   18.8  -3.27 
##  6    10.4    58.7       90    8.64   8.94 -0.295
##  7    69      39.4       28.2 14.2   11.7   2.44 
##  8   144.     23.5       13.9 15.8   15.3   0.544
##  9    10.3     2.52       1.2  5.76   8.93 -3.17 
## 10   240.      3.12      25.4 12.7   19.8  -7.12 
## # ... with 190 more rows
…
coef(lm.facebook)

## (Intercept)    facebook 
##  11.1739657   0.2024958

ab <- coef(lm.facebook)
ab

## (Intercept)    facebook 
##  11.1739657   0.2024958

facebook.fitted <- marketing %>% mutate(fitted = ab[1] + ab[2]*facebook) 
facebook.fitted

## # A tibble: 200 x 5
##    youtube facebook newspaper sales fitted
##      <dbl>    <dbl>     <dbl> <dbl>  <dbl>
##  1   276.     45.4       83.0 26.5    20.4
##  2    53.4    47.2       54.1 12.5    20.7
##  3    20.6    55.1       83.2 11.2    22.3
##  4   182.     49.6       70.2 22.2    21.2
##  5   217.     13.0       70.1 15.5    13.8
##  6    10.4    58.7       90    8.64   23.1
##  7    69      39.4       28.2 14.2    19.1
##  8   144.     23.5       13.9 15.8    15.9
##  9    10.3     2.52       1.2  5.76   11.7
## 10   240.      3.12      25.4 12.7    11.8
## # ... with 190 more rows

marketing %>% mutate(fitted = fitted.values(lm.facebook))

## # A tibble: 200 x 5
##    youtube facebook newspaper sales fitted
##      <dbl>    <dbl>     <dbl> <dbl>  <dbl>
##  1   276.     45.4       83.0 26.5    20.4
##  2    53.4    47.2       54.1 12.5    20.7
##  3    20.6    55.1       83.2 11.2    22.3
##  4   182.     49.6       70.2 22.2    21.2
##  5   217.     13.0       70.1 15.5    13.8
##  6    10.4    58.7       90    8.64   23.1
##  7    69      39.4       28.2 14.2    19.1
##  8   144.     23.5       13.9 15.8    15.9
##  9    10.3     2.52       1.2  5.76   11.7
## 10   240.      3.12      25.4 12.7    11.8
## # ... with 190 more rows

facebook.fitted.res <-  facebook.fitted %>% mutate(res = sales - fitted) 
facebook.fitted.res

## # A tibble: 200 x 6
##    youtube facebook newspaper sales fitted      res
##      <dbl>    <dbl>     <dbl> <dbl>  <dbl>    <dbl>
##  1   276.     45.4       83.0 26.5    20.4   6.16  
##  2    53.4    47.2       54.1 12.5    20.7  -8.24  
##  3    20.6    55.1       83.2 11.2    22.3 -11.2   
##  4   182.     49.6       70.2 22.2    21.2   0.990 
##  5   217.     13.0       70.1 15.5    13.8   1.68  
##  6    10.4    58.7       90    8.64   23.1 -14.4   
##  7    69      39.4       28.2 14.2    19.1  -4.98  
##  8   144.     23.5       13.9 15.8    15.9  -0.0967
##  9    10.3     2.52       1.2  5.76   11.7  -5.92  
## 10   240.      3.12      25.4 12.7    11.8   0.914 
## # ... with 190 more rows

facebook.fitted %>% mutate(res = residuals(lm.facebook))

## # A tibble: 200 x 6
##    youtube facebook newspaper sales fitted      res
##      <dbl>    <dbl>     <dbl> <dbl>  <dbl>    <dbl>
##  1   276.     45.4       83.0 26.5    20.4   6.16  
##  2    53.4    47.2       54.1 12.5    20.7  -8.24  
##  3    20.6    55.1       83.2 11.2    22.3 -11.2   
##  4   182.     49.6       70.2 22.2    21.2   0.990 
##  5   217.     13.0       70.1 15.5    13.8   1.68  
##  6    10.4    58.7       90    8.64   23.1 -14.4   
##  7    69      39.4       28.2 14.2    19.1  -4.98  
##  8   144.     23.5       13.9 15.8    15.9  -0.0967
##  9    10.3     2.52       1.2  5.76   11.7  -5.92  
## 10   240.      3.12      25.4 12.7    11.8   0.914 
## # ... with 190 more rows
…
coef(lm.newspaper)

## (Intercept)   newspaper 
##  14.8216885   0.0546931

ab <- coef(lm.newspaper)
ab

## (Intercept)   newspaper 
##  14.8216885   0.0546931

newspaper.fitted <- marketing %>% mutate(fitted = ab[1] + ab[2]*newspaper) 
newspaper.fitted

## # A tibble: 200 x 5
##    youtube facebook newspaper sales fitted
##      <dbl>    <dbl>     <dbl> <dbl>  <dbl>
##  1   276.     45.4       83.0 26.5    19.4
##  2    53.4    47.2       54.1 12.5    17.8
##  3    20.6    55.1       83.2 11.2    19.4
##  4   182.     49.6       70.2 22.2    18.7
##  5   217.     13.0       70.1 15.5    18.7
##  6    10.4    58.7       90    8.64   19.7
##  7    69      39.4       28.2 14.2    16.4
##  8   144.     23.5       13.9 15.8    15.6
##  9    10.3     2.52       1.2  5.76   14.9
## 10   240.      3.12      25.4 12.7    16.2
## # ... with 190 more rows

marketing %>% mutate(fitted = fitted.values(lm.newspaper))

## # A tibble: 200 x 5
##    youtube facebook newspaper sales fitted
##      <dbl>    <dbl>     <dbl> <dbl>  <dbl>
##  1   276.     45.4       83.0 26.5    19.4
##  2    53.4    47.2       54.1 12.5    17.8
##  3    20.6    55.1       83.2 11.2    19.4
##  4   182.     49.6       70.2 22.2    18.7
##  5   217.     13.0       70.1 15.5    18.7
##  6    10.4    58.7       90    8.64   19.7
##  7    69      39.4       28.2 14.2    16.4
##  8   144.     23.5       13.9 15.8    15.6
##  9    10.3     2.52       1.2  5.76   14.9
## 10   240.      3.12      25.4 12.7    16.2
## # ... with 190 more rows

newspaper.fitted.res <-  newspaper.fitted %>% mutate(res = sales - fitted) 
newspaper.fitted.res

## # A tibble: 200 x 6
##    youtube facebook newspaper sales fitted     res
##      <dbl>    <dbl>     <dbl> <dbl>  <dbl>   <dbl>
##  1   276.     45.4       83.0 26.5    19.4   7.16 
##  2    53.4    47.2       54.1 12.5    17.8  -5.30 
##  3    20.6    55.1       83.2 11.2    19.4  -8.21 
##  4   182.     49.6       70.2 22.2    18.7   3.54 
##  5   217.     13.0       70.1 15.5    18.7  -3.17 
##  6    10.4    58.7       90    8.64   19.7 -11.1  
##  7    69      39.4       28.2 14.2    16.4  -2.20 
##  8   144.     23.5       13.9 15.8    15.6   0.257
##  9    10.3     2.52       1.2  5.76   14.9  -9.13 
## 10   240.      3.12      25.4 12.7    16.2  -3.49 
## # ... with 190 more rows

newspaper.fitted %>% mutate(res = residuals(lm.newspaper))

## # A tibble: 200 x 6
##    youtube facebook newspaper sales fitted     res
##      <dbl>    <dbl>     <dbl> <dbl>  <dbl>   <dbl>
##  1   276.     45.4       83.0 26.5    19.4   7.16 
##  2    53.4    47.2       54.1 12.5    17.8  -5.30 
##  3    20.6    55.1       83.2 11.2    19.4  -8.21 
##  4   182.     49.6       70.2 22.2    18.7   3.54 
##  5   217.     13.0       70.1 15.5    18.7  -3.17 
##  6    10.4    58.7       90    8.64   19.7 -11.1  
##  7    69      39.4       28.2 14.2    16.4  -2.20 
##  8   144.     23.5       13.9 15.8    15.6   0.257
##  9    10.3     2.52       1.2  5.76   14.9  -9.13 
## 10   240.      3.12      25.4 12.7    16.2  -3.49 
## # ... with 190 more rows
…
Answer: You should notice that there are a lot more information delivered by summary(). We will investigate the details in the next lab.

Either some R arithmetic calculations or residuals() and fitted.values() can obtain the fitted values and residuals from our fitted linear model lm.youtube. However, the results are less organized and we need to build a tidy tibble from scratch. The R package broom provides us a standard and efficient routine to take the messy output of lm() and turn them into tidy tibbles.

library(broom)
augment(lm.youtube) 

## # A tibble: 200 x 8
##    sales youtube .fitted .resid .std.resid    .hat .sigma   .cooksd
##    <dbl>   <dbl>   <dbl>  <dbl>      <dbl>   <dbl>  <dbl>     <dbl>
##  1 26.5    276.    21.6   4.96      1.27   0.00970   3.90 0.00794  
##  2 12.5     53.4   11.0   1.50      0.387  0.0122    3.92 0.000920 
##  3 11.2     20.6    9.42  1.74      0.449  0.0165    3.92 0.00169  
##  4 22.2    182.    17.1   5.12      1.31   0.00501   3.90 0.00434  
##  5 15.5    217.    18.8  -3.27     -0.839  0.00578   3.91 0.00205  
##  6  8.64    10.4    8.94 -0.295    -0.0762 0.0180    3.92 0.0000534
##  7 14.2     69     11.7   2.44      0.627  0.0105    3.92 0.00208  
##  8 15.8    144.    15.3   0.544     0.140  0.00549   3.92 0.0000538
##  9  5.76    10.3    8.93 -3.17     -0.818  0.0181    3.91 0.00616  
## 10 12.7    240.    19.8  -7.12     -1.83   0.00690   3.89 0.0116   
## # ... with 190 more rows
…
