C2 - Testing and Prediction
…
1       117.

augment(mod2) %>% summarise(MSE.powerlaw = mean((exp(`log(Bodywt)`) - exp(.fitted))^2))

# A tibble: 1 x 1
  MSE.powerlaw
         
1         109.

A tidy way to compute the MSE

The R function augment() from the package broom extracts the predictors, responses, fitted values, residuals and some other information from mod and organizes them into a tidy fashion. Notice the column name of this tibble.

# A tibble: 385 x 7
   `log(Bodywt)` `log(Heartgirth)` .fitted .std.resid    .hat .sigma  .cooksd
                                          
 1          4.85              4.71    4.77      0.971 0.00262 0.0844 0.00124 
 2          4.62              4.66    4.65     -0.312 0.00407 0.0844 0.000198
 3          4.61              4.63    4.58      0.334 0.00611 0.0844 0.000344
 4          4.52              4.62    4.55     -0.358 0.00700 0.0844 0.000451
 5          4.58              4.65    4.63     -0.496 0.00465 0.0844 0.000575
 6          4.70              4.62    4.53      2.07  0.00800 0.0840 0.0173  
 7          4.70              4.70    4.75     -0.551 0.00273 0.0844 0.000415
 8          4.80              4.74    4.86     -0.685 0.00303 0.0844 0.000713
 9          4.75              4.72    4.79     -0.473 0.00260 0.0844 0.000291
10          4.61              4.67    4.68     -0.835 0.00359 0.0844 0.00126 
# ... with 375 more rows
…
